[
  {
    "text": "\n    Lorem ipsum dolor sit amet, consectetur adipiscing elit.\n    Praesent tempus metus vitae arcu vestibulum, vitae dictum lorem ullamcorper.\nNam pharetra mauris enim, ut posuere metus efficitur sit amet.\n    ",
    "textPlural": null,
    "context": null,
    "references": ["multiline_template_string.vue:2"],
    "comments": []
  }
]
